com\myindo\project\addproduct\controller\Resources.class
com\myindo\project\addproduct\dao\AddProduct2.class
com\myindo\project\addproduct\model\RequestModel.class
com\myindo\project\addproduct\model\HasilProduct.class
com\myindo\project\addproduct\util\ParameterizedDB.class
com\myindo\project\addproduct\connection\Connect.class
com\myindo\project\addproduct\model\ResponseContentModel.class
com\myindo\project\addproduct\model\ParameterDB.class
com\myindo\project\addproduct\model\ResponseModel.class
com\myindo\project\addproduct\process\ProsesAddProduct.class
