com\myindo\project\inqhistorysharepointhr\model\HasilGet.class
com\myindo\project\inqhistorysharepointhr\model\ResponseModel.class
com\myindo\project\inqhistorysharepointhr\util\ParameterizedDB.class
com\myindo\project\inqhistorysharepointhr\dao\GetHistorySharePointHr.class
com\myindo\project\inqhistorysharepointhr\connection\Connect.class
com\myindo\project\inqhistorysharepointhr\controller\Resources.class
com\myindo\project\inqhistorysharepointhr\model\ParameterDB.class
com\myindo\project\inqhistorysharepointhr\process\ProsesHistorySharePoint.class
com\myindo\project\inqhistorysharepointhr\model\ResponseContentModel.class
com\myindo\project\inqhistorysharepointhr\model\RequestModel.class
