C:\Users\Resti Pebriani\workspace\myindo-project-update-password\src\main\java\com\myindo\project\updatepassword\model\ResponseContentModel.java
C:\Users\Resti Pebriani\workspace\myindo-project-update-password\src\main\java\com\myindo\project\updatepassword\connection\Connect.java
C:\Users\Resti Pebriani\workspace\myindo-project-update-password\src\main\java\com\myindo\project\updatepassword\model\ResponseModel.java
C:\Users\Resti Pebriani\workspace\myindo-project-update-password\src\main\java\com\myindo\project\updatepassword\model\HasilGet.java
C:\Users\Resti Pebriani\workspace\myindo-project-update-password\src\main\java\com\myindo\project\updatepassword\process\ProsessUpdate.java
C:\Users\Resti Pebriani\workspace\myindo-project-update-password\src\main\java\com\myindo\project\updatepassword\util\ParameterizedDB.java
C:\Users\Resti Pebriani\workspace\myindo-project-update-password\src\main\java\com\myindo\project\updatepassword\controller\Resources.java
C:\Users\Resti Pebriani\workspace\myindo-project-update-password\src\main\java\com\myindo\project\updatepassword\model\RequestModel.java
C:\Users\Resti Pebriani\workspace\myindo-project-update-password\src\main\java\com\myindo\project\updatepassword\dao\UpdatePass.java
C:\Users\Resti Pebriani\workspace\myindo-project-update-password\src\main\java\com\myindo\project\updatepassword\model\ParameterDB.java
